\relax 
\providecommand\hyper@newdestlabel[2]{}
\providecommand\HyperFirstAtBeginDocument{\AtBeginDocument}
\HyperFirstAtBeginDocument{\ifx\hyper@anchor\@undefined
\global\let\oldcontentsline\contentsline
\gdef\contentsline#1#2#3#4{\oldcontentsline{#1}{#2}{#3}}
\global\let\oldnewlabel\newlabel
\gdef\newlabel#1#2{\newlabelxx{#1}#2}
\gdef\newlabelxx#1#2#3#4#5#6{\oldnewlabel{#1}{{#2}{#3}}}
\AtEndDocument{\ifx\hyper@anchor\@undefined
\let\contentsline\oldcontentsline
\let\newlabel\oldnewlabel
\fi}
\fi}
\global\let\hyper@last\relax 
\gdef\HyperFirstAtBeginDocument#1{#1}
\providecommand\HyField@AuxAddToFields[1]{}
\providecommand\HyField@AuxAddToCoFields[2]{}
\bibstyle{siam}
\citation{rees:ipmuserguide}
\@writefile{toc}{\contentsline {section}{\numberline {1}Introduction}{1}{section.1}}
\@writefile{toc}{\contentsline {section}{\numberline {2}Methods}{1}{section.2}}
\@writefile{lof}{\contentsline {figure}{\numberline {1}{\ignorespaces Life cycle figures of bednet ownership and physical integrity\relax }}{2}{figure.caption.1}}
\providecommand*\caption@xref[2]{\@setref\relax\@undefined{#1}}
\newlabel{fig:lifecycles}{{1}{2}{Life cycle figures of bednet ownership and physical integrity\relax }{figure.caption.1}{}}
\newlabel{ipm_eqn}{{1}{2}{Methods}{equation.2.1}{}}
\newlabel{P_eq}{{2}{3}{Methods}{equation.2.2}{}}
\newlabel{kern_eq}{{3}{3}{Methods}{equation.2.3}{}}
\newlabel{Proj_eq}{{4}{3}{Methods}{equation.2.4}{}}
\newlabel{Proj_eq2}{{5}{3}{Methods}{equation.2.5}{}}
\@writefile{toc}{\contentsline {subsection}{\numberline {2.1}Survival and recruitment}{3}{subsection.2.1}}
\newlabel{surv_eq}{{6}{4}{Survival and recruitment}{equation.2.6}{}}
\newlabel{PDF_lognorm}{{7}{4}{Survival and recruitment}{equation.2.7}{}}
\@writefile{toc}{\contentsline {subsection}{\numberline {2.2}Net distribution to replace all failing nets}{4}{subsection.2.2}}
\newlabel{equil_Kern}{{8}{4}{Net distribution to replace all failing nets}{equation.2.8}{}}
\bibdata{IPMnets}
\bibcite{rees:ipmuserguide}{1}
\@writefile{toc}{\contentsline {subsection}{\numberline {2.3}Implementation of the IPM as an individual net based micro-simulation}{5}{subsection.2.3}}
\@writefile{toc}{\contentsline {subsection}{\numberline {2.4}Parameterization of the model}{5}{subsection.2.4}}
\@writefile{toc}{\contentsline {section}{\numberline {3}Results}{5}{section.3}}
